{
  "project_info": {
    "project_number": "306125762508",
    "firebase_url": "https://burrerosapp.firebaseio.com",
    "project_id": "burrerosapp",
    "storage_bucket": "burrerosapp.appspot.com"
  },
  "client": [
    {
      "client_info": {
        "mobilesdk_app_id": "1:306125762508:android:e22121f7f809cdca",
        "android_client_info": {
          "package_name": "com.example.lopezf.burreros"
        }
      },
      "oauth_client": [
        {
          "client_id": "306125762508-det6gb0ro2ksgtqrgo11j9hdj8sq5d5m.apps.googleusercontent.com",
          "client_type": 1,
          "android_info": {
            "package_name": "com.example.lopezf.burreros",
            "certificate_hash": "4d32554d92d5751a36a8c7760ce178a79635f10f"
          }
        },
        {
          "client_id": "306125762508-8bm6f4jplesrpcaqdauv7u4nnp039unp.apps.googleusercontent.com",
          "client_type": 3
        }
      ],
      "api_key": [
        {
          "current_key": "AIzaSyCowkvh-BId8MNCBZRfwyNNg8NxLYqqEL8"
        }
      ],
      "services": {
        "analytics_service": {
          "status": 1
        },
        "appinvite_service": {
          "status": 2,
          "other_platform_oauth_client": [
            {
              "client_id": "306125762508-8bm6f4jplesrpcaqdauv7u4nnp039unp.apps.googleusercontent.com",
              "client_type": 3
            }
          ]
        },
        "ads_service": {
          "status": 2
        }
      }
    },
    {
      "client_info": {
        "mobilesdk_app_id": "1:306125762508:android:08c1f2b0f129db6e",
        "android_client_info": {
          "package_name": "com.example.lopezf.burrerosserver"
        }
      },
      "oauth_client": [
        {
          "client_id": "306125762508-7lo86j1d3rq6hlmds0b7t8c62q9h3ehb.apps.googleusercontent.com",
          "client_type": 1,
          "android_info": {
            "package_name": "com.example.lopezf.burrerosserver",
            "certificate_hash": "4d32554d92d5751a36a8c7760ce178a79635f10f"
          }
        },
        {
          "client_id": "306125762508-8bm6f4jplesrpcaqdauv7u4nnp039unp.apps.googleusercontent.com",
          "client_type": 3
        }
      ],
      "api_key": [
        {
          "current_key": "AIzaSyCowkvh-BId8MNCBZRfwyNNg8NxLYqqEL8"
        }
      ],
      "services": {
        "analytics_service": {
          "status": 1
        },
        "appinvite_service": {
          "status": 2,
          "other_platform_oauth_client": [
            {
              "client_id": "306125762508-8bm6f4jplesrpcaqdauv7u4nnp039unp.apps.googleusercontent.com",
              "client_type": 3
            }
          ]
        },
        "ads_service": {
          "status": 2
        }
      }
    },
    {
      "client_info": {
        "mobilesdk_app_id": "1:306125762508:android:d1c538959586567a",
        "android_client_info": {
          "package_name": "com.example.lopezf.burrerosshipper"
        }
      },
      "oauth_client": [
        {
          "client_id": "306125762508-r5garad6s8fch8444ukaqag37btronq1.apps.googleusercontent.com",
          "client_type": 1,
          "android_info": {
            "package_name": "com.example.lopezf.burrerosshipper",
            "certificate_hash": "4d32554d92d5751a36a8c7760ce178a79635f10f"
          }
        },
        {
          "client_id": "306125762508-8bm6f4jplesrpcaqdauv7u4nnp039unp.apps.googleusercontent.com",
          "client_type": 3
        }
      ],
      "api_key": [
        {
          "current_key": "AIzaSyCowkvh-BId8MNCBZRfwyNNg8NxLYqqEL8"
        }
      ],
      "services": {
        "analytics_service": {
          "status": 1
        },
        "appinvite_service": {
          "status": 2,
          "other_platform_oauth_client": [
            {
              "client_id": "306125762508-8bm6f4jplesrpcaqdauv7u4nnp039unp.apps.googleusercontent.com",
              "client_type": 3
            }
          ]
        },
        "ads_service": {
          "status": 2
        }
      }
    }
  ],
  "configuration_version": "1"
}